/home/ziani/MyEclipseWorkingSpace/al-projet/src/main/java/fr/univ/filtering/HandlerFilterGName.java
/home/ziani/MyEclipseWorkingSpace/al-projet/src/main/java/fr/univ/visitor/HeaderVisitorSample.java
/home/ziani/MyEclipseWorkingSpace/al-projet/src/main/java/fr/univ/filtering/HandlerFilter.java
/home/ziani/MyEclipseWorkingSpace/al-projet/src/main/java/fr/univ/app/App.java
/home/ziani/MyEclipseWorkingSpace/al-projet/src/main/java/fr/univ/builder/ConcreteHeaderFileBuilder.java
/home/ziani/MyEclipseWorkingSpace/al-projet/src/main/java/fr/univ/filtering/HandlerFilterSL.java
/home/ziani/MyEclipseWorkingSpace/al-projet/src/main/java/fr/univ/filtering/Test.java
/home/ziani/MyEclipseWorkingSpace/al-projet/src/main/java/fr/univ/builder/Header.java
/home/ziani/MyEclipseWorkingSpace/al-projet/src/main/java/fr/univ/filtering/HandlerFilterPathName.java
/home/ziani/MyEclipseWorkingSpace/al-projet/src/main/java/fr/univ/extract/ExtractArchive.java
/home/ziani/MyEclipseWorkingSpace/al-projet/src/main/java/fr/univ/listing/ListArchive.java
/home/ziani/MyEclipseWorkingSpace/al-projet/src/main/java/fr/univ/visitor/HeaderVisitor.java
/home/ziani/MyEclipseWorkingSpace/al-projet/src/main/java/fr/univ/filtering/HandlerFilterSG.java
/home/ziani/MyEclipseWorkingSpace/al-projet/src/main/java/fr/univ/filtering/HandlerFilterEndPoint.java
/home/ziani/MyEclipseWorkingSpace/al-projet/src/main/java/fr/univ/visitor/HeaderVisitorVerbose.java
/home/ziani/MyEclipseWorkingSpace/al-projet/src/main/java/fr/univ/builder/Director.java
/home/ziani/MyEclipseWorkingSpace/al-projet/src/main/java/fr/univ/filtering/HandlerFilterUName.java
/home/ziani/MyEclipseWorkingSpace/al-projet/src/main/java/fr/univ/filtering/ConstructorHandlerFilter.java
/home/ziani/MyEclipseWorkingSpace/al-projet/src/main/java/fr/univ/filtering/HandlerFilterRegex.java
/home/ziani/MyEclipseWorkingSpace/al-projet/src/main/java/fr/univ/archive/Archivage.java
/home/ziani/MyEclipseWorkingSpace/al-projet/src/main/java/fr/univ/filtering/HandlerFilterGID.java
/home/ziani/MyEclipseWorkingSpace/al-projet/src/main/java/fr/univ/filtering/HandlerFilterUID.java
/home/ziani/MyEclipseWorkingSpace/al-projet/src/main/java/fr/univ/builder/HeaderFileBuilder.java
